digraph "matrice.h"
{
  edge [fontname="Helvetica",fontsize="10",labelfontname="Helvetica",labelfontsize="10"];
  node [fontname="Helvetica",fontsize="10",shape=record];
  Node1 [label="matrice.h",height=0.2,width=0.4,color="black", fillcolor="grey75", style="filled", fontcolor="black"];
  Node1 -> Node2 [dir="back",color="midnightblue",fontsize="10",style="solid",fontname="Helvetica"];
  Node2 [label="arbre.c",height=0.2,width=0.4,color="black", fillcolor="white", style="filled",URL="$arbre_8c.html"];
  Node1 -> Node3 [dir="back",color="midnightblue",fontsize="10",style="solid",fontname="Helvetica"];
  Node3 [label="compression.c",height=0.2,width=0.4,color="black", fillcolor="white", style="filled",URL="$compression_8c.html"];
  Node1 -> Node4 [dir="back",color="midnightblue",fontsize="10",style="solid",fontname="Helvetica"];
  Node4 [label="haar.c",height=0.2,width=0.4,color="black", fillcolor="white", style="filled",URL="$haar_8c.html"];
  Node1 -> Node5 [dir="back",color="midnightblue",fontsize="10",style="solid",fontname="Helvetica"];
  Node5 [label="main.c",height=0.2,width=0.4,color="black", fillcolor="white", style="filled",URL="$main_8c.html"];
  Node1 -> Node6 [dir="back",color="midnightblue",fontsize="10",style="solid",fontname="Helvetica"];
  Node6 [label="matrice.c",height=0.2,width=0.4,color="black", fillcolor="white", style="filled",URL="$matrice_8c.html"];
  Node1 -> Node7 [dir="back",color="midnightblue",fontsize="10",style="solid",fontname="Helvetica"];
  Node7 [label="menu.c",height=0.2,width=0.4,color="black", fillcolor="white", style="filled",URL="$menu_8c.html"];
  Node1 -> Node8 [dir="back",color="midnightblue",fontsize="10",style="solid",fontname="Helvetica"];
  Node8 [label="transformation.c",height=0.2,width=0.4,color="black", fillcolor="white", style="filled",URL="$transformation_8c.html"];
}
